{
    "mod": "minecraft",
    "id": "double_plant",
    "name": "Sunflower",
    "technical": false,
    "introduced_at": "1.0.0",
    "changed_at": "1.7.0",
    "meta": [
        {
            "key" : "type",
            "values":[
                { "value": "Sunflower", "mask": 0},
                { "value": "Lilac", "mask": 1},
                { "value": "Double Tallgrass", "mask": 2},
                { "value": "Large Fern", "mask": 3},
                { "value": "Rose Bush", "mask": 4},
                { "value": "Peony", "mask": 5}
            ]
        }
    ]
}