{
  "mod": "minecraft",
  "id": "purpur_pillar",
  "name": "Purpur Pillar",
  "technical": false,
  "introduced_at": "1.9.0-15w31a",
  "changed_at": "1.9.0-15w31a",
  "meta": [
    {
      "key": "axis",
      "values": [
        {
          "value": "x",
          "mask": 0
        },
        {
          "value": "y",
          "mask": 1
        },
        {
          "value": "z",
          "mask": 2
        }
      ],
      "technical": true
    }
  ]
}