{
  "mod": "minecraft",
  "id": "sand",
  "name": "Sand",
  "technical": false,
  "introduced_at": "1.0.0",
  "changed_at": "1.7.0",
  "meta": [
        {
            "key":"color",
            "values": [
                {"value" : "", "mask": 0},
                {"value" : "Red", "mask": 1}
            ]
        }
    ]
}