{
  "mod": "minecraft",
  "id": "sponge",
  "name": "Sponge",
  "changed_at": "1.8.0",
  "technical": false,
  "introduced_at": "1.8.3",
  "meta": [
        {
            "key":"wet",
            "values": [
                {"value" : "false", "mask": 0},
                {"value" : "true", "mask": 1}
            ]
        }
    ]
}