{
  "mod": "minecraft",
  "id": "stained_hardened_clay",
  "name": "Stained Clay",
  "technical": false,
  "introduced_at": "1.6.4",
  "changed_at": "1.6.0",
  "meta": [
        {
            "key":"color",
            "values": [
                {"value" : "White", "mask": 0},
                {"value" : "Orange", "mask": 1},
                {"value" : "Magenta", "mask": 2},
                {"value" : "Light Blue", "mask": 3},
                {"value" : "Yellow", "mask": 4},
                {"value" : "Lime", "mask": 5},
                {"value" : "Pink", "mask": 6},
                {"value" : "Gray", "mask": 7},
                {"value" : "Light Gray", "mask": 8},
                {"value" : "Cyan", "mask": 9},
                {"value" : "Purple", "mask": 10},
                {"value" : "Blue", "mask": 11},
                {"value" : "Brown", "mask": 12},
                {"value" : "Green", "mask": 13},
                {"value" : "Red", "mask": 14},
                {"value" : "Black", "mask": 15}
            ]
        }
    ]
}