{
  "mod": "minecraft",
  "id": "wooden_slab",
  "name": "Wood Slab",
  "technical": false,
  "introduced_at": "1.0.0",
  "changed_at": "1.7.9",
  "meta": [ {
            "key":"variant",
            "values": [
                {"value" : "Oak", "mask": 0},
                {"value" : "Spruce", "mask": 1},
                {"value" : "Birch", "mask": 2},
                {"value" : "Jungle", "mask": 3},
                {"value" : "Acacia", "mask": 4},
                {"value" : "Dark Oak", "mask": 5}
            ]
        }]
}